{
    "Params":
    {
        "TERM": {
            "gds": 63,
            "color": "20 74 153"
        },
        
        "TEXT": {
            "gds": 64,
            "color": "100 0.6 153"
        },

        "USER": {
            "gds": 65,
            "color": "50 200 200"
        }
    },
  
    "Layers":
    {
        "1": {
            "name": "M1",
            "type": "wire",
            "union": "true",
            "view": "false",
            "color": "204 0.6 153"
        },
        
        "3": {
            "name": "I1BU",
            "type": "via",
            "wire1": ["M2"],
            "wire2": ["R2"],
            "union": "true",
            "view": "false",
            "color": "204 60 153"
        },
        
        "4": {
            "name": "I1C",
            "type": "via",
            "wire1": ["M2"],
            "wire2": ["R2"],
            "union": "true",
            "view": "false",
            "color": "255 102 204"
        },
        
        "5": {
            "name": "A1",
            "type": "via",
            "wire1": ["M2"],
            "wire2": ["R2"],
            "union": "true",
            "view": "false",
            "color": "191 191 191"
        },
        
        "6": {
            "name": "M2",
            "type": "wire",
            "union": "true",
            "view": "true",
            "color": "152 251 152"
        },
        
        "8": {
            "name": "I2",
            "type": "via",
            "wire1": ["M2"],
            "wire2": ["M3"],
            "union": "true",
            "view": "false",
            "color": "0 255 255"
        },
        
        "9": {
            "name": "R2",
            "type": "shunt",
            "union": "true",
            "view": "true",
            "color": "255 127 80"
        },
        
        "10": {
            "name": "M3",
            "type": "wire",
            "union": "true",
            "view": "false",
            "color": "255 127 230"            
        },
        
        "11": {
            "name": "R3",
            "type": "resistance",
            "union": "true",
            "view": "false",
            "color": "178 102 255"
        },
        
        "30": {
            "name": "M0",
            "type": "wire",
            "union": "true",
            "view": "false",
            "color": "0.8 0.6 1.0"
        },
        
        "31": {
            "name": "I0",
            "type": "via",
            "union": "true",
            "view": "false",
            "color": "0.8 0.6 1.0"
        },
        
        "15": {
            "name": "I1BL",
            "type": "via",
            "union": "true",
            "view": "false",
            "color": "192 192 192"
        },
        
        "21": {
            "name": "J2",
            "type": "junction",
            "union": "true",
            "view": "false",
            "color": "178 102 255"
        },
        
        "34": {
            "name": "MN1",
            "type": "wire",
            "union": "true",
            "view": "true",
            "color": "255 102 102"
        },
        
        "38": {
            "name": "MN2",
            "type": "wire",
            "union": "true",
            "view": "true",
            "color": "255 178 102"
        },
        
        "42": {
            "name": "MN3",
            "type": "wire",
            "union": "true",
            "view": "true",
            "color": "0 44 128"
        },
        
        "32": {
            "name": "IN1",
            "type": "via",
            "wire1": ["M2"],
            "wire2": ["M3"],
            "union": "true",
            "view": "false",
            "color": "200 44 128"
        },
        
        "36": {
            "name": "IN2",
            "type": "via",
            "wire1": ["M2"],
            "wire2": ["M3"],
            "union": "true",
            "view": "false",
            "color": "10 44 128"
        },
        
        "40": {
            "name": "IN3",
            "type": "via",
            "wire1": ["M2"],
            "wire2": ["M3"],
            "union": "true",
            "view": "false",
            "color": "100 44 128"
        }
    },

    "Atoms":
    {
        "vias":
        {
            "id": 0,
            "desc": "Connect MN1 to M2, through via MN1-M2.",
            "check": ["I1BU", "M2", "I0", "IN1", "M1", "M0", "MN1", "MN2", "IN2"],

            "Subatom":
            {
                "via_MN1_M2": {
                    "id": 0,
                    "gds": 100,
                    "wire1": 34,
                    "wire2": 6,
                    "view": "true",
                    "result": []
                },
                "via_MN2_M2": {
                    "id": 1,
                    "gds": 101,
                    "wire1": 38,
                    "wire2": 6,
                    "view": "true",
                    "result": []
                },
                "via_MN3_M2": {
                    "id": 2,
                    "gds": 102,
                    "wire1": 42,
                    "wire2": 6,
                    "view": "true",
                    "result": []
                },
                "via_mm_tv00_rv22_70x70": {
                    "id": 3,
                    "gds": 103,
                    "wire1": 6,
                    "wire2": 9,
                    "view": "true",
                    "result": []
                }
            }
        },

        "wires":
        {
            "id": 1,
            "desc": "Get the wire polygons between vias.",
            "check": ["M0", "M1", "M2"],

            "Subatom": ["M2", "MN1", "MN2", "MN3", "R2"]
        },

        "jjs":
        {
            "id": 2,
            "desc": "Detect the Junctions in the layout.",
            "check": ["J2"],

            "shunt": {
                "name": "via_shunt",
                "wire": 6,
                "shunt": 9,
                "via": 3,
                "ground": 8
            }
        }
    }
}
