{
    "Module":
    [
        {
            "id": 0,
            "desc": "Connect M2 to M1 with via I1BU",
	          "gds": 3,

            "via_connect": {
                "wire_1": {"Layer": "M1"},
                "wire_2": {"Layer": "M2"},
                "via_layer": {"Layer": "I1BU"},
                "view": "false",
                "result": []
            }
        }
    ]
}
